<?xml version="1.0" encoding="UTF-8"?>
<svg width="3px" height="14px" viewBox="0 0 3 14" version="1.1" xmlns="http://www.w3.org/2000/svg" xmlns:xlink="http://www.w3.org/1999/xlink">
    <!-- Generator: Sketch 49.3 (51167) - http://www.bohemiancoding.com/sketch -->
    <title>error</title>
    <desc>Created with Sketch.</desc>
    <defs></defs>
    <g id="Design" stroke="none" stroke-width="1" fill="none" fill-rule="evenodd">
        <g id="Contact---Validation" transform="translate(-236.000000, -344.000000)" fill="#FFFFFF">
            <g id="Alert" transform="translate(202.000000, 321.000000)">
                <g id="Error" transform="translate(20.000000, 15.000000)">
                    <path d="M17,8 L17,13.4824281 C17,14.0702905 16.9620693,14.6533517 16.8862069,15.2316294 C16.8103444,15.809907 16.7103454,16.399358 16.5862069,17 L14.4137931,17 C14.2896546,16.399358 14.1896556,15.809907 14.1137931,15.2316294 C14.0379307,14.6533517 14,14.0702905 14,13.4824281 L14,8 L17,8 Z M14,20.5 C14,20.2894726 14.0383519,20.0935682 14.1150568,19.9122807 C14.1917617,19.7309932 14.2968743,19.5731001 14.4303977,19.4385965 C14.5639211,19.3040929 14.72159,19.1973688 14.9034091,19.1184211 C15.0852282,19.0394733 15.2840898,19 15.5,19 C15.7102283,19 15.9062491,19.0394733 16.0880682,19.1184211 C16.2698873,19.1973688 16.4289766,19.3040929 16.5653409,19.4385965 C16.7017052,19.5731001 16.8082383,19.7309932 16.8849432,19.9122807 C16.9616481,20.0935682 17,20.2894726 17,20.5 C17,20.7105274 16.9616481,20.9078938 16.8849432,21.0921053 C16.8082383,21.2763167 16.7017052,21.4356718 16.5653409,21.5701754 C16.4289766,21.704679 16.2698873,21.8099411 16.0880682,21.8859649 C15.9062491,21.9619887 15.7102283,22 15.5,22 C15.2840898,22 15.0852282,21.9619887 14.9034091,21.8859649 C14.72159,21.8099411 14.5639211,21.704679 14.4303977,21.5701754 C14.2968743,21.4356718 14.1917617,21.2763167 14.1150568,21.0921053 C14.0383519,20.9078938 14,20.7105274 14,20.5 L14,20.5 Z" id="error"></path>
                </g>
            </g>
        </g>
    </g>
</svg>